<svg width="100" height="100" viewBox="0 0 100 100" fill="none" xmlns="http://www.w3.org/2000/svg">
<path d="M4 50C4 24.5949 24.5949 4 50 4V4C75.4051 4 96 24.5949 96 50V50C96 75.4051 75.4051 96 50 96V96C24.5949 96 4 75.4051 4 50V50Z" fill="#8658F2"/>
</svg>
