<svg width="150" height="150" viewBox="0 0 150 150" fill="none" xmlns="http://www.w3.org/2000/svg">
<path d="M75.5 8C61.3161 8.01634 47.7179 13.5265 37.6883 23.3217C27.6587 33.117 22.0168 46.3975 22.0001 60.25C21.9831 71.5703 25.7693 82.5835 32.7779 91.6C32.7779 91.6 34.237 93.4763 34.4753 93.747L75.5 141L116.544 93.7233C116.758 93.4715 118.222 91.6 118.222 91.6L118.227 91.5858C125.232 82.5732 129.017 71.5651 129 60.25C128.983 46.3975 123.341 33.117 113.312 23.3217C103.282 13.5265 89.6839 8.01634 75.5 8V8ZM75.5 79.25C71.6523 79.25 67.8909 78.1357 64.6916 76.0479C61.4924 73.9602 58.9988 70.9928 57.5264 67.521C56.0539 64.0492 55.6686 60.2289 56.4193 56.5433C57.1699 52.8576 59.0228 49.4722 61.7436 46.815C64.4643 44.1578 67.9308 42.3482 71.7046 41.6151C75.4784 40.882 79.3901 41.2582 82.9449 42.6963C86.4998 44.1344 89.5382 46.5696 91.6758 49.6942C93.8135 52.8187 94.9545 56.4922 94.9545 60.25C94.9481 65.2872 92.8964 70.1163 89.2493 73.6781C85.6023 77.2399 80.6577 79.2437 75.5 79.25V79.25Z" fill="#56C327"/>
</svg>
